1132104041102,0.235,0.396984924623,0.260175178834,0.405296021711,0.523201245838,0.698222909589,0.873777681825,-1.34554631706e-05,59.4405595812,0.09,1.0,0.0,0.235947433445,0.317231759642,-0.0120057515396,-1.08461534582,0.112370528513,1.32989353615,0.873663878841,0.178231092962,1
1121114013745,0.765,0.247222222222,0.141878759235,0.25122533035,0.39770503639,0.551874915844,0.714786315766,5.99931037141e-06,137.285491382,0.12,1.0,0.206896551724,1.46603933723,0.576401550179,-1.22012597989,4.5545485504,0.226730383201,2.9539840592,0.720344894971,0.238536954648,1
1101121055915,0.165,0.308108108108,0.172787072566,0.287994740559,0.403226839425,0.57349504688,0.803165493712,4.45730453926e-06,150.442479255,0.04,1.0,0.0689655172414,0.158777356155,0.159184032973,0.408278965001,0.0518694363233,0.0549367389689,0.380042394502,0.812388393221,0.177208999871,1
1112120009710,0.295,0.342696629213,0.21937658215,0.405918300604,0.563505401856,0.718595154078,0.871337432024,-1.69809902928e-05,115.987460438,0.1,1.0,0.0,0.180320635652,0.335949222436,0.483490765192,-0.635624274784,0.126404681648,1.80961205634,0.857458222436,0.191940710405,1
1126111062188,0.18,0.297124600639,0.134267120744,0.223791190105,0.359768248569,0.539804968359,0.720024860748,-9.02036448891e-06,48.6111113567,0.04,1.0,-0.0344827586207,0.202264434617,0.206747884422,-0.404113563217,0.187204470849,0.0647991218377,0.416691631379,0.781150486684,0.232132172981,1
1135101014068,0.295,0.292452830189,0.198151712126,0.277435929739,0.432083677156,0.550278702577,0.807231734829,-1.63981387066e-05,63.1578947199,0.055,1.0,-0.172413793103,0.438783321664,0.232424350359,-0.102511243785,1.93125607126,0.0832441198023,0.677049063025,0.788809787303,0.387764409115,1
1004123020928,0.415,0.315498154982,0.200701944506,0.376590372287,0.571685925949,0.74027598125,0.886816904737,1.0362278309e-05,115.853658893,0.12,1.0,-0.103448275862,0.29419584145,0.502692621806,0.661217685738,-0.813297713262,0.204341654019,2.01102812726,0.849102361018,0.158409501527,1
1109122013402,0.32,0.371508379888,0.156459158388,0.332402534482,0.56394699322,0.725236626939,0.881417149843,-5.2712750382e-05,28.5714286003,0.105,1.0,0.275862068966,0.174885096675,0.408360136457,0.705047478366,-0.608080407218,0.159065243413,1.9420664419,0.840219865872,0.178955800996,1
1118120014818,0.56,0.263610315186,0.132815471839,0.297530135087,0.429899424201,0.622976597758,0.812948647979,1.58368195056e-05,357.79816104,0.06,1.0,0.0689655172414,0.485935642287,0.277403261261,0.861562311967,5.23000238734,0.10432927992,0.438639121698,0.777540975991,0.709577193024,1
1132108047067,0.48,0.297124600639,0.219458601932,0.368206605675,0.508503782774,0.648686703199,0.853400464948,-2.68407864063e-05,105.263157643,0.1,1.0,-0.137931034483,0.29419584145,0.419832994552,0.807718109566,0.0915306085678,0.163968036053,1.91652719178,0.840053552866,0.218950927495,1
1104126042066,0.475,0.311688311688,0.186182912802,0.301223577173,0.452122832316,0.615677459653,0.827315234324,-1.29030884382e-06,147.435897722,0.09,1.0,-0.241379310345,0.282330582656,0.363738264293,0.612122206336,1.53307054801,0.127411787269,0.795674666776,0.819077185962,0.20426248425,1
1138101042925,0.31,0.372549019608,0.242165536021,0.385737785015,0.528058900738,0.669164389435,0.809089226532,1.49838770037e-05,64.4171781037,0.05,1.0,0.0344827586207,0.116863247781,0.189309201592,1.2586185684,5.70005675677,0.0744276740336,0.847488214822,0.844661641044,0.266374289568,1
1012124036213,0.3,0.328313253012,0.220422752499,0.313499361695,0.468295255729,0.6219092422,0.774429988029,4.32092306039e-06,37.5782881648,0.07,1.0,0.0344827586207,0.282330582656,0.293895214112,0.398336063818,0.00553314858891,0.101730718202,0.857772708201,0.809639249231,0.182411517991,1
1140098032354,0.17,0.473958333333,0.247972467729,0.449697038321,0.634468722962,0.78417645688,0.892509464557,7.17811826952e-06,60.1265822745,0.08,1.0,0.0344827586207,0.148153621497,0.243645236211,0.157947810977,-1.21872207822,0.0920724328956,1.13770649942,0.87968111518,0.309917808392,1
1123002030574,0.225,0.323529411765,0.193591324324,0.337267578105,0.484122016566,0.609526134466,0.819773359907,8.62083365426e-06,149.606299992,0.05,1.0,0.137931034483,0.282330582656,0.190315579289,-0.359223242523,0.920662743563,0.0685736172297,0.449294349297,0.801222170161,0.200663272294,1
1140003094995,0.33,0.275362318841,0.173006089159,0.285764563512,0.396537024112,0.587152509945,0.797155582577,1.35874287217e-05,249.999999319,0.06,1.0,-0.103448275862,0.213388850465,0.319463173915,0.969325471284,0.876489567751,0.117689547784,0.785645219839,0.82569578487,4.19354532906,1
1129004054767,0.565,0.260135135135,0.1129414028,0.228184979945,0.323126381818,0.507102141132,0.737917643199,1.53432115569e-05,59.6026491242,0.09,1.0,0.172413793103,0.54170045295,0.489360615145,0.650906314965,1.02030656261,0.167787617068,1.85477342695,0.754154424759,0.225540659089,1
1138005040726,0.42,0.161572052402,0.139864894131,0.209812172164,0.34655938464,0.480898069984,0.83276634322,-8.58711619926e-06,60.7142857492,0.05,1.0,0.103448275862,0.584893192461,0.263421677492,-0.159496203122,4.90414600519,0.104940685314,0.712239405164,0.727035985242,0.373373728642,1
1135007030517,0.32,0.347457627119,0.178056717171,0.384197555177,0.541510682477,0.680599191082,0.825491680187,-5.26184690758e-06,555.555562105,0.09,1.0,0.275862068966,0.191242008027,0.310401512662,0.805648449566,1.10150327255,0.119614456239,1.07696835708,0.800626641798,0.29036850702,1
1143006051206,0.125,0.328767123288,0.232728389302,0.349117261962,0.465535750578,0.581993731043,0.815067688682,-9.99016887386e-06,240.740737091,0.04,1.0,-0.103448275862,0.106623783978,0.15831091834,0.0821974839125,-0.605629061325,0.0521637088582,0.582361630719,0.835710385862,0.272451876813,1
1109009045185,0.36,0.395705521472,0.22267234425,0.40991685121,0.560096392874,0.740607491473,0.829803515686,5.84859208191e-07,281.437124888,0.075,1.0,-0.206896551724,0.479092704143,0.286931381104,0.127020659634,-0.225738898943,0.112568094488,1.64007372695,0.851637963147,0.197289282918,1
1115009058378,0.375,0.303797468354,0.18308802721,0.330885459312,0.440939649073,0.611711314402,0.824094562643,-6.04454399522e-06,85.1485148556,0.09,1.0,-0.0689655172414,0.29419584145,0.350581496128,0.742442307203,0.43955484942,0.129513973655,0.805845631095,0.8270958211,0.200016422355,1
1140008041839,0.215,0.326424870466,0.176501742805,0.322350952624,0.496135964028,0.682433222779,0.878307036129,-9.22870875805e-07,70.7964599141,0.06,1.0,-0.103448275862,0.127197456176,0.269843252258,0.695917447932,-0.498355291332,0.102835527137,1.02519291446,0.843802891906,0.692908521412,1
1126010014810,0.26,0.379104477612,0.159612536979,0.353959220731,0.508853737937,0.690852190941,0.847202132132,1.68848003182e-05,25.826446254,0.09,1.0,0.0689655172414,0.16949939102,0.368619881146,0.625166763968,-0.76445249949,0.135786185494,1.89551286727,0.850000747635,0.17852207085,1
1121012011738,0.23,0.366847826087,0.17308508589,0.307691844115,0.453488233424,0.667739877906,0.82196658853,-9.59643742249e-06,25.9433961695,0.08,1.0,0.448275862069,0.224616199265,0.319317369636,0.161725003981,-0.827772862089,0.110048184878,1.25928872333,0.825700143396,0.187994269649,1
1004013014879,0.12,0.329896907216,0.201696553962,0.267699746579,0.401578006164,0.535490332001,0.803462625933,-5.12636784945e-06,18.6170212786,0.03,1.0,-0.0344827586207,0.106623783978,0.13762973445,0.269685596881,-0.151878827171,0.0465141823485,0.613028663301,0.813446867341,0.226589440208,1
1012013027077,0.62,0.243137254902,0.112641112215,0.210351346203,0.360179718844,0.512057832559,0.75339932553,-3.34274708246e-05,136.272545254,0.12,1.0,0.379310344828,0.432187899274,0.660339043278,1.1375793319,1.61013788764,0.237027231551,0.624284155586,0.775130551986,0.272817512479,1
1132012056261,0.285,0.24649859944,0.165716335265,0.221980488272,0.444036301421,0.555116000139,0.777426097653,-1.11073275316e-05,70.1754381298,0.04,1.0,-0.137931034483,0.158777356155,0.165976051864,0.898574872283,5.35175552233,0.0604277839857,0.361808220401,0.763403363623,0.176558448945,1
1123013052130,0.52,0.320627802691,0.175140621795,0.271299448196,0.422849128225,0.588648345633,0.757762929529,-4.70261738734e-05,118.279569642,0.1,1.0,0.0,0.499684835502,0.471254634994,0.311938435634,0.17098102686,0.16220675166,0.737483331415,0.812057032843,0.158669057858,1
1104014046453,0.225,0.4,0.207060600586,0.412432688596,0.578852694191,0.720813994414,0.878537080746,-4.66511878329e-06,36.281179127,0.08,1.0,0.0,0.16949939102,0.309992699339,0.480607487787,-0.930648313268,0.116566418864,1.38210304229,0.85926946614,0.202683831446,1
1007016030853,0.395,0.339350180505,0.196073923582,0.364396300956,0.558172290012,0.706097827325,0.856406702406,4.44047112651e-05,42.7046262523,0.11,1.0,0.0689655172414,0.202264434617,0.465596101637,0.710414067382,-0.546584493647,0.186974218172,2.15036039195,0.865551918809,0.260012027273,1
1138014028348,0.27,0.341040462428,0.196240835534,0.334857935417,0.469975885634,0.68496623889,0.77926240565,2.02078733776e-05,38.7453874964,0.1,1.0,0.0,0.213388850465,0.388905378939,0.430961725294,-0.803858082563,0.13425631678,1.42858755054,0.837462637938,0.468549826011,1
1126017059149,0.555,0.295588235294,0.174847708575,0.298461942818,0.421094095748,0.570198758685,0.750305095604,3.52870613563e-05,1018.5185168,0.08,1.0,-0.103448275862,0.380384264603,0.370500663515,0.53603368162,2.39647060381,0.129426268405,0.71988258917,0.758420950832,0.179235970689,1
1132016060617,0.605,0.243243243243,0.147591557906,0.268035403893,0.435217373702,0.556366217724,0.786943170654,1.53592784517e-05,500.000005894,0.07,1.0,-0.172413793103,0.513561248436,0.31348917081,1.332354592,5.69663384086,0.120332340497,0.718152309288,0.733817202043,0.178658570931,1
1123021018705,1.05,0.335216572505,0.158283351682,0.299199496411,0.471574855596,0.656245527012,0.843080962537,-1.89148123042e-05,258.426967539,0.14,1.0,-0.241379310345,2.10455958813,0.52626838857,-0.0617576057892,2.80377308949,0.196015814474,1.1688157984,0.774648764809,0.13087378094,1
1129021061340,0.58,0.295739348371,0.165160171177,0.330446445762,0.45147453467,0.62551595381,0.813206312452,1.85689894477e-06,201.298700678,0.08,1.0,-0.0344827586207,0.737800828749,0.334639241142,0.26507157846,1.98721494665,0.124187150509,0.433152515705,0.811650251914,0.178232635626,1
1018023033283,0.715,0.242152466368,0.189353434123,0.379589547852,0.508179546397,0.710847118674,0.869941700296,-2.0728442931e-05,63.9887903031,0.11,1.0,-0.206896551724,1.37684028662,0.455270017011,0.0441746881216,2.30409897278,0.190412215786,2.15968604859,0.835577518817,0.299214319562,1
1015025029724,0.37,0.340823970037,0.172418761687,0.340331038698,0.473662020169,0.608468907497,0.780172832889,2.81289266774e-05,44.6871896872,0.09,1.0,-0.0344827586207,0.62929603264,0.353652609309,-0.511501535951,0.302468860192,0.118508607885,1.64032559894,0.841664766685,0.403505545668,1
1118025086819,0.245,0.403433476395,0.19809939098,0.364317076746,0.477092234109,0.702439428337,0.864063714336,8.36472324674e-06,29.4695481409,0.09,1.0,-0.0344827586207,0.224616199265,0.324015506484,0.26982899306,-0.942585167205,0.114910364083,1.37385148336,0.846216747996,0.175593905004,1
1121025038994,0.35,0.307829181495,0.176358896346,0.310088796576,0.441028154731,0.617648918788,0.787195440584,2.9013317116e-06,73.2044199732,0.05,1.0,0.0344827586207,0.499684835502,0.20891174643,-0.325422575213,2.32569693776,0.0756508154004,0.574786395895,0.813406456126,0.147577405565,1
1109027092099,1.69,0.237472766885,0.163079839879,0.300118387998,0.436660988481,0.591403991969,0.81824484244,-3.91745182186e-07,923.076920564,0.17,0.997821350763,-0.172413793103,6.17794291271,0.717923467129,-0.183450740633,7.25694446877,0.293008555188,0.582827167711,0.660790221346,0.167372404172,1
1112027075488,0.18,0.422174840085,0.227951778963,0.410394420467,0.59297632155,0.726687168757,0.869200139389,4.02585000269e-06,1399.9999335,0.07,1.0,-0.0344827586207,0.148153621497,0.202974310255,0.13841360339,-1.04495121506,0.0751633957064,0.959525266867,0.865486780681,0.200863394537,1
1104029078581,0.41,0.266423357664,0.129138167181,0.262168704919,0.380612309762,0.528375025823,0.760119931782,1.3558281182e-05,21.2282031877,0.075,1.0,-0.344827586207,0.412522566495,0.356635717917,1.01001979097,1.19183730534,0.126875786639,1.79070964742,0.779725492227,0.456022449059,1
1004033095869,1.34,0.186567164179,0.108226508016,0.225508422996,0.391190134181,0.68572519039,0.854429747489,-7.77829256416e-05,305.486283969,0.09,0.992537313433,0.0344827586207,4.91561634175,0.515404902371,-2.10852920244,19.2525902963,0.277620937505,1.9736519741,0.728361992159,0.544300513033,1
1152024014305,0.93,0.280575539568,0.179873001574,0.273241861879,0.423466934238,0.618764994652,0.810153769285,8.37138163756e-06,186.046511256,0.16,1.0,-0.172413793103,0.905460717963,0.751183932624,0.891080261857,0.679688901655,0.30085364978,0.910924448092,0.823443155947,0.2381112479,1
1143029029863,0.35,0.306493506494,0.131008957675,0.269256721038,0.430843371789,0.643579960993,0.808115685124,4.32431478242e-06,38.1194409087,0.05,1.0,0.0,0.499684835502,0.211889657425,0.148686275423,2.48876344948,0.0782897386913,0.50929998265,0.801853993046,0.1516227011,1
1149026021616,0.945,0.230088495575,0.212269558476,0.381537862723,0.565374322289,0.791471840081,0.914707113079,-7.06318582469e-06,367.704280076,0.16,0.997050147493,0.0344827586207,0.342764961138,0.594206721444,1.13541307916,2.10538966279,0.259469623494,3.20278796976,0.847416299012,0.172974199351,1
1140031042880,0.5,0.364464692483,0.21937658215,0.409674216396,0.593153959799,0.772129692566,0.902098653377,-1.32696488613e-05,53.6332179977,0.1,1.0,0.206896551724,0.318256738556,0.332869221451,0.643271629197,0.340708426529,0.131910432421,1.66842960561,0.870623181502,0.185674237576,1
1146029027549,0.42,0.237113402062,0.132740413542,0.242312080473,0.407478098057,0.58231436641,0.777781999249,-5.06828070851e-06,78.7878788674,0.07,1.0,-0.137931034483,0.247383514243,0.412552311453,1.27108461447,1.1412335211,0.16060987166,1.19985257806,0.802149151292,0.174961877689,1
1115041014916,0.435,0.284768211921,0.237052701476,0.39839937439,0.504954127295,0.677203382335,0.825377760047,2.67990084973e-05,416.666651929,0.13,1.0,0.51724137931,0.213388850465,0.539336281078,0.871696262206,-0.25322852669,0.217555212767,2.32309968814,0.860006686407,0.237735656239,1
1107042067540,0.335,0.154639175258,0.211590691789,0.344895793026,0.485208832803,0.580575762361,0.861933360837,-2.36234759283e-05,35.9281437593,0.09,1.0,-0.137931034483,0.106623783978,0.472451826907,1.14865655592,0.433290833427,0.191192786704,2.46136595995,0.814614142791,0.820127424807,1
1118041039866,0.29,0.350515463918,0.179395699389,0.306225282615,0.506153934637,0.674716012098,0.818131480557,-5.60267585254e-05,52.6315789813,0.09,1.0,0.0,0.202264434617,0.3577971753,0.551387108124,-0.533260118261,0.128452400482,1.72227331185,0.823108484728,0.229724020046,1
1001044057969,0.315,0.307692307692,0.143350379951,0.285459146617,0.426409684991,0.566284028751,0.746828818145,-1.16840130278e-05,315.789481662,0.07,1.0,0.137931034483,0.355189412351,0.316872982606,0.109226932876,0.0725677598303,0.110529566753,0.614236739222,0.816471749231,0.507144605146,1
1112043017750,0.535,0.260869565217,0.146209882856,0.247578997312,0.353000468252,0.477652235974,0.625182496253,-1.922894688e-05,86.0215054183,0.1,1.0,-0.0689655172414,0.737800828749,0.564502400141,-0.715467033247,1.58929975987,0.18509187652,2.37764428669,0.762779369667,0.211849355035,1
1157025032242,0.215,0.312138728324,0.181178749734,0.344093027717,0.54079823304,0.670141051397,0.826839800393,3.21912668781e-05,80.8823528208,0.05,1.0,0.0689655172414,0.116863247781,0.262877431143,0.769854545985,-0.433604867415,0.101094481664,1.12371890426,0.866655929235,0.524343162168,1
1138036019393,0.29,0.292056074766,0.195220821374,0.38518667105,0.462295884613,0.620686924084,0.892509464557,-8.36393776437e-06,56.6572237676,0.05,1.0,-0.0344827586207,0.158777356155,0.232679394201,0.867486403524,0.055202345098,0.0890106179036,1.33929698372,0.853416665062,0.306874999474,1
1132040005159,0.425,0.341222879684,0.235225786198,0.454377599854,0.636855408477,0.758685300175,0.89379623258,-4.18699909991e-05,168.316831691,0.14,1.0,0.137931034483,0.247383514243,0.543525114744,0.587504996891,-1.02202382818,0.227196720506,2.24499728142,0.887935668573,0.137548163914,1
1135039064862,0.65,0.292410714286,0.151572639589,0.256785274971,0.367100601195,0.542991307514,0.767529387087,-2.18231802621e-05,1112.90321474,0.1,1.0,-0.0689655172414,0.472312502433,0.497891175606,0.747544858188,2.51881484631,0.170564595301,0.35678045443,0.791610702472,0.169713545476,1
1143036051173,0.7,0.267796610169,0.156595362979,0.323466754965,0.467791673305,0.626323739958,0.834113340604,-2.28856681444e-05,122.913505227,0.13,1.0,-0.0344827586207,0.342764961138,0.549428782706,0.986793223946,1.20585710464,0.212740102117,1.13246940637,0.838076698472,1.25117799587,1
1001049040837,0.345,0.316265060241,0.205297532238,0.360188442361,0.526152891856,0.780401461028,0.890209483976,3.19528595467e-05,27.3437499525,0.09,1.0,-0.137931034483,0.202264434617,0.402030306437,0.767806875441,-0.626399261331,0.165046367371,1.77969437603,0.850693369978,0.191922672965,1
1155030035896,0.25,0.244897959184,0.140755748688,0.245219410683,0.315317758852,0.520976556792,0.743682457708,1.32255951661e-05,38.4615372805,0.045,1.0,0.0,0.235947433445,0.261754460316,1.00636087089,1.02559908381,0.0899403262533,1.24042540358,0.754355542579,0.320906854709,1
1109049062488,0.255,0.323275862069,0.138028788428,0.274815432199,0.414191753286,0.597247504602,0.733411122343,1.03805771336e-05,274.509804982,0.04,1.0,-0.172413793103,0.16949939102,0.201113430594,0.797862841463,2.08223889427,0.0685982103136,0.595336099587,0.773444901481,0.14636024438,1
1149034033987,0.53,0.333333333333,0.152404727512,0.273827004983,0.417440291471,0.587333808647,0.798250790031,3.35783511592e-05,333.333331117,0.13,1.0,0.103448275862,0.690440931643,0.564536291385,0.0795455336867,-0.180885666939,0.19254749392,2.5734166345,0.80358347414,0.178214518385,1
1018050008348,0.48,0.271739130435,0.198906288821,0.359369191988,0.574062368593,0.766599423339,0.895435544609,-2.1834125202e-05,33.4302325895,0.13,1.0,0.103448275862,0.282330582656,0.594059453683,0.799693695932,-0.709895104741,0.256025032395,2.52835611916,0.86028698165,0.278596505128,1
1101052007605,0.105,0.452574525745,0.215132589633,0.428329164326,0.571162072847,0.7140434336,0.85698536735,-7.20187001823e-06,64.1025639281,0.04,1.0,-0.0689655172414,0.106623783978,0.129034114304,0.0367397043998,-1.12121137817,0.0477162745313,0.572053724207,0.868485930949,0.187026626479,1
1007052043902,0.255,0.485530546624,0.309662746714,0.563717121422,0.704445727527,0.805763202235,0.907354097436,-7.14213498719e-06,20.6451612788,0.12,1.0,0.0344827586207,0.202264434617,0.350581496128,0.22696020705,-1.42573501151,0.14190741946,1.8343031677,0.904730179106,0.283527219921,1
1009053060282,0.235,0.293729372937,0.137799826093,0.273119270455,0.389963295448,0.628740929246,0.841733609456,1.26329493676e-07,52.0833334648,0.05,1.0,0.137931034483,0.148153621497,0.267369314451,0.948884431118,0.00937725666953,0.0978217821782,0.773570783024,0.808524338753,0.224677558813,1
1152034012897,0.445,0.259433962264,0.200918291901,0.358742309653,0.575331817403,0.730285573287,0.907017615055,-7.0673225924e-05,72.1649483821,0.11,1.0,-0.172413793103,0.282330582656,0.545328850293,0.845795860445,-0.586896667314,0.235002949278,2.9239257882,0.852847158855,0.363158441329,1
1123054002748,0.325,0.460674157303,0.301223577173,0.525270164905,0.647883979101,0.798375920793,0.92000010445,-2.3753267656e-05,70.7070710209,0.13,1.0,-0.206896551724,0.419057521689,0.363738264293,0.0251663506515,-1.21185532976,0.143027495739,2.30520908045,0.889549847659,0.170848450664,1
1015059035847,0.495,0.187265917603,0.0976934515589,0.184070077348,0.290524774976,0.383966900328,0.669066238591,3.69537937678e-05,24.0740740659,0.05,1.0,-0.206896551724,0.527566058238,0.373675632473,1.3605772561,2.89198748502,0.131681249482,1.00751758838,0.717422745294,0.291239130527,1
1012061032932,0.37,0.338762214984,0.19349913657,0.341905896771,0.502961364801,0.7044299379,0.838367855714,1.4700387584e-05,95.8904109919,0.11,1.0,-0.379310344828,0.247383514243,0.452128153782,0.675095348664,-0.466363558958,0.171330909885,1.86563955389,0.837773315866,0.324209051121,1
1132056017213,0.185,0.275641025641,0.182581901083,0.275141853764,0.365179290767,0.547807658963,0.809307798407,1.01885863912e-06,123.287672504,0.02,1.0,0.206896551724,0.29419584145,0.100891386685,-1.0936355635,10.0259881592,0.0366719894828,0.335254505492,0.747142308302,0.241869326301,1
1121062054143,0.395,0.385074626866,0.2735808571,0.486290648412,0.653689709168,0.79313943749,0.910006850509,-1.9038844456e-05,52.0833330701,0.14,1.0,-0.0344827586207,0.258925411794,0.400490525128,0.362995086301,-0.863196405565,0.159893816403,1.51101417854,0.87796680796,0.208840321462,1
1126060018663,0.24,0.306818181818,0.231447511198,0.45678109894,0.582168910999,0.734207535364,0.882348414049,-1.9312669143e-05,41.2371133612,0.07,1.0,-0.137931034483,0.148153621497,0.274787150242,0.607740626115,-0.870708562874,0.109057034869,1.27527334245,0.878867395986,0.178188408895,1
1112065028914,0.265,0.39119804401,0.230677700927,0.381131956523,0.602190426686,0.746690627823,0.930329372142,2.33629464059e-06,74.7826087396,0.1,1.0,-0.275862068966,0.202264434617,0.3577971753,0.500122718996,-0.968115120228,0.136833443208,1.80242353059,0.870286337391,0.148192562531,1
1123074059961,0.285,0.412844036697,0.234787230814,0.428594282998,0.626586233115,0.740927267042,0.89744437563,-1.26996555808e-05,58.823529639,0.08,1.0,-0.206896551724,0.213388850465,0.235400682388,0.241820903457,-0.540704815604,0.0883852891465,1.28583495025,0.863974089416,0.221906459926,1
1009080031857,0.255,0.275766016713,0.170560693892,0.265717390529,0.366577016905,0.518216757827,0.784396019769,2.98163502901e-05,60.6060605781,0.07,1.0,0.206896551724,0.191242008027,0.310615084817,0.599923844289,0.126241172146,0.102034813989,0.949105162676,0.814940192103,0.997165600886,1
1115078011228,0.5,0.286103542234,0.177193743839,0.343529306425,0.441730492297,0.632402070685,0.872087952581,-1.42894728021e-06,356.557375424,0.04,1.0,-0.137931034483,1.08929613085,0.186846575538,-2.94676260158,32.4231731307,0.0766568360911,0.556913631021,0.773820396743,0.194170264468,1
1118079047751,0.79,0.181571815718,0.223468891113,0.325670974563,0.511898915812,0.648686207113,0.791586284522,-2.8683013668e-07,205.607478334,0.05,1.0,0.103448275862,0.644371723215,0.197092401583,3.19335729008,44.9381739228,0.0919945912822,0.547867411307,0.746649993732,0.176093343077,1
1012083076520,1.345,0.128048780488,0.156204377684,0.26039952325,0.361339596347,0.516571610539,0.739903197122,2.56714842713e-05,244.897959916,0.07,0.996951219512,0.0,7.09095899178,0.353825386773,-6.46472810028,86.1627232849,0.175421265712,0.829124164503,0.708077918967,0.211807489014,1
1121080038228,0.61,0.021164021164,0.139943087211,0.281181051865,0.41984113314,0.565820677541,0.835904044171,-1.6186814355e-06,245.495495663,0.01,1.0,-0.103448275862,0.158777356155,0.0655127401429,14.2573538309,252.155045616,0.0600713965905,0.25508815609,0.454117816322,0.197062087919,1
1001086066262,2.015,0.148760330579,0.172932651146,0.274306684385,0.389280887967,0.542697704541,0.731325093011,-5.34895442844e-05,1435.64356443,0.1,0.997245179063,-0.0344827586207,13.996848355,0.527900624012,-3.85519299903,53.4585311554,0.252891808758,0.606333186303,0.427077024645,0.213460453077,1
1101087093412,0.425,0.35534591195,0.261173392242,0.431418026867,0.658747710099,0.792492859012,0.904145900917,3.80856432254e-05,169.811320382,0.14,1.0,-0.0344827586207,0.282330582656,0.549363291172,0.556231465031,-1.10095563439,0.236896282998,2.36206881847,0.893310232308,0.194692170689,1
1107087009629,0.465,0.436813186813,0.311931701432,0.511201240679,0.702023077834,0.808968918165,0.901621903405,4.12358467403e-05,324.32432614,0.15,1.0,-0.172413793103,0.706082389003,0.409868961208,0.117921327322,-0.910380357671,0.166737889574,1.82929673222,0.889262874503,0.220843934403,1
1004088003684,0.39,0.312292358804,0.0570346425025,0.151423011694,0.314699545531,0.507416403866,0.785790417285,-1.97770545869e-05,127.516778009,0.07,1.0,0.206896551724,0.330454417978,0.482249766982,0.468004904677,-0.036980698565,0.153857188734,1.33625875154,0.757505728446,0.204453002203,1
1109088010920,0.74,0.304347826087,0.187580228011,0.38754504278,0.588856379078,0.731447508402,0.85781918754,1.11102898097e-05,362.025316599,0.1,1.0,0.344827586207,1.51188643151,0.392895311917,-0.197287318305,3.5784738688,0.161171609805,1.58829605093,0.836020270631,0.170720387838,1
1126080080799,0.925,0.190476190476,0.166835182201,0.345622228042,0.487209616526,0.670155064098,0.854597276185,-1.69478885314e-05,146.090535061,0.06,0.997354497354,0.103448275862,0.247383514243,0.274787150242,4.83208773613,53.110758796,0.131257292926,1.59093260105,0.741126188594,0.200303032134,1
1112088039717,0.7,0.0201729106628,0.215132589633,0.358574593672,0.571162072847,0.747833199561,0.85698536735,-1.9362943601e-06,291.079812103,0.04,1.0,0.172413793103,0.106623783978,0.129034114304,8.66825394019,101.303557393,0.0995171176401,0.740650931192,0.631053815954,3.22178577442,1
1138073077086,0.28,0.385869565217,0.277435929739,0.432083677156,0.547543104766,0.694792602953,0.888237340949,2.57725407168e-06,30.3030305118,0.065,1.0,0.0344827586207,0.122006556752,0.232424350359,0.643769680965,0.244290453378,0.0869805630828,1.18698925242,0.869592561669,0.201440873713,1
1101091118138,0.42,0.388379204893,0.256426578212,0.46208956323,0.597910827238,0.726955168273,0.855072432541,-2.95978278134e-05,76.9230770106,0.13,1.0,0.137931034483,0.527566058238,0.427282311721,0.185093586703,-0.875385142858,0.164593400468,2.12522913993,0.867925048266,0.226583492422,1
1118087057745,0.2,0.38038277512,0.200215596439,0.396827334136,0.543240029851,0.642119855334,0.840051313942,2.15445788317e-06,159.574468411,0.05,1.0,0.0344827586207,0.180320635652,0.184018856121,0.139546027758,-0.548560473428,0.065884042514,0.637401140127,0.844104631972,0.166202458104,1
1123084082662,0.345,0.259523809524,0.187246397709,0.312147927073,0.411306652137,0.542841390947,0.88860527751,1.27128460744e-05,72.6141077452,0.06,1.0,-0.103448275862,0.393156802945,0.295167624189,0.660033970242,0.370896918779,0.107444770393,1.2752232489,0.794650707284,0.537641890564,1
1107091074572,0.51,0.167259786477,0.159780864827,0.218733323821,0.350030824454,0.558262516798,0.861266247757,-2.81215834332e-05,118.50311836,0.07,1.0,0.310344827586,0.485935642287,0.461252930841,1.30715486626,0.916307820552,0.186993084897,2.10884156739,0.776249859474,0.230386696568,1
1112092112791,0.2,0.396907216495,0.207261337805,0.388338767555,0.545068279132,0.691760294506,0.830628561981,2.49246502778e-05,18.5185186121,0.08,1.0,0.275862068966,0.137627285823,0.264218908409,0.290283096962,-0.661675267263,0.0942314990145,1.42529476568,0.85188680756,0.494061479299,1
1155056016744,0.45,0.329032258065,0.244742208794,0.424705907501,0.551761165938,0.726508407151,0.880774934276,8.8975113989e-07,149.532710499,0.11,1.0,0.206896551724,0.330454417978,0.422504387208,0.672329982892,-0.368568994239,0.174244747553,1.43463774012,0.86615969386,45.2811691513,1
1126086046961,0.26,0.377880184332,0.193090731049,0.346361388668,0.510584706021,0.702619680067,0.859087025662,7.46174763422e-06,339.622640764,0.08,1.0,0.0,0.247383514243,0.283609493489,0.197914993908,-0.642255408231,0.103609228658,0.688205697302,0.838385096544,0.299586284393,1
1157053028533,0.3,0.360655737705,0.24388909075,0.408062730126,0.584746636135,0.669050822763,0.838696324869,2.38366252803e-06,41.6666666967,0.11,1.0,-0.103448275862,0.270574105209,0.399317642799,0.374422631716,-0.863203620065,0.150783049723,1.88557807987,0.866012844426,0.762096804014,1
1012108072918,0.3,0.271978021978,0.16749870791,0.291809995874,0.4150308732,0.581240375123,0.747647109966,-7.02368862091e-06,800.00002021,0.05,1.0,-0.137931034483,0.485935642287,0.219962562661,-1.13256355468,4.44102938412,0.0795746441315,0.603823124473,0.784429163893,0.261457696241,1
1004111014582,1.7,0.0224358974359,0.229264795747,0.391350947154,0.552149368378,0.711753336645,0.87025466882,3.16685641886e-06,394.335512255,0.08,0.99358974359,0.310344827586,3.48745389933,0.279970042035,1.53377718677,50.5827361211,0.18603085398,1.44759342658,0.588418568589,0.206036144586,1
1015108049855,1.085,0.0292275574113,0.215132589633,0.358574593672,0.502047015941,0.645562027344,0.85698536735,-1.03052418468e-05,197.802197738,0.03,0.997912317328,0.275862068966,4.49540873858,0.129034114304,-13.1119523469,243.062499287,0.0998805297474,0.676306657099,0.524620221263,0.145308471645,1
1001113003933,1.71,0.254901960784,0.157479516542,0.281364774746,0.420049808448,0.562061486168,0.782197449888,3.80148568484e-05,424.836598907,0.2,1.0,0.0689655172414,4.29663443892,0.882039834476,0.425009142822,3.47950444147,0.329995892252,0.639877489442,0.741713639766,0.175747572613,1
1107113044573,0.36,0.328605200946,0.194535035785,0.350232376491,0.501409080823,0.655966878565,0.802294069455,2.15342141941e-06,135.135133234,0.06,1.0,0.0344827586207,0.235947433445,0.235660194022,0.610781963418,1.88590953748,0.087305038156,0.638467548491,0.831611372349,0.162866279243,1
1101114093150,0.485,0.325459317585,0.161886099202,0.303643283231,0.482938630376,0.603188407848,0.843426809122,1.90059761985e-05,631.578945184,0.12,1.0,0.172413793103,0.432187899274,0.558752676398,0.559502471244,-0.437629083246,0.207818253875,1.51161727196,0.840143460784,0.193652409858,1
1012112071459,0.44,0.32476635514,0.201235493528,0.335468361084,0.469815063479,0.604321188724,0.836367344588,4.34506539404e-05,350.515466199,0.07,1.0,0.103448275862,0.499684835502,0.274648738056,0.136475417165,0.950045630749,0.097891876375,1.37195621925,0.813780356953,0.233504230557,1
1121109095093,0.21,0.390977443609,0.235071323128,0.354290887869,0.511912679535,0.70593203484,0.856181088125,-1.07617340123e-05,54.2168675325,0.07,1.0,-0.103448275862,0.158777356155,0.235116192031,0.143266308433,-0.518471301426,0.0838124991977,0.97841990027,0.842704909966,0.840699699724,1
1109115018046,0.3,0.391089108911,0.242932176539,0.418517919531,0.585065174955,0.785572028752,0.850464165692,1.97890727845e-05,115.384615071,0.085,1.0,-0.0344827586207,0.425592476883,0.265435672847,-0.283465030053,0.240683072404,0.105958509173,0.940680113883,0.838229955909,0.341963034979,1
1104116020766,0.265,0.302961275626,0.172800491886,0.301046565992,0.432129502123,0.605186577998,0.778449012485,-2.39311156116e-05,158.536586557,0.05,1.0,-0.310344827586,0.213388850465,0.213213774058,0.0381248042069,0.485423258575,0.0716041027771,0.793620731786,0.811197539517,0.18982037532,1
1112115000819,0.24,0.459074733096,0.243427075579,0.435025711378,0.617364449551,0.772129692566,0.902098653378,2.27123325774e-05,55.5555558362,0.11,1.0,-0.0689655172414,0.191242008027,0.342194984797,0.282171822256,-1.10640996407,0.127971134395,1.31972198913,0.865951227909,0.244679452012,1
1007117029955,0.51,0.344743276284,0.195652666389,0.387865839448,0.547232298335,0.76273615738,0.88784775683,-1.07404336585e-05,253.776435041,0.08,1.0,-0.310344827586,0.137627285823,0.279895824785,1.38889811455,6.14731321142,0.114175463082,1.54166225574,0.83028307427,0.158125677223,1
1123109027455,0.185,0.255681818182,0.106305196399,0.264561557338,0.476305065464,0.632296284799,0.786964152894,-1.08615994043e-05,13.8248847942,0.04,1.0,-0.137931034483,0.0964781961432,0.173283544059,1.35860561298,2.8302336774,0.0688745115925,0.734372247248,0.747135969409,0.813108548723,1
1129105014998,0.305,0.322834645669,0.132308552947,0.23946596602,0.407675475632,0.546355832135,0.809484363285,-6.35691435882e-06,40.322580678,0.07,1.0,0.0689655172414,0.191242008027,0.346494336579,0.627302386809,0.314738543676,0.117184826085,1.2420979703,0.801095083981,0.742022419307,1
1107118043157,0.825,0.300911854103,0.208572352656,0.317368760088,0.494212194632,0.650696188834,0.838122555157,-6.9877955484e-07,245.614034708,0.1,1.0,0.172413793103,0.485935642287,0.386596810323,1.53241163473,10.7425264829,0.151923097285,0.770444642186,0.81666917695,0.223926979388,1
1118114008955,0.605,0.126050420168,0.140601107615,0.226031302706,0.336033545003,0.504371004241,0.679368949448,1.9413213655e-05,110.091743328,0.06,1.0,-0.137931034483,0.224616199265,0.326058343741,2.73371415388,11.1161296155,0.147211306834,0.963345157844,0.66751811443,6.26667057993,1
1132005046811,0.6,0.275147928994,0.19980897392,0.347414972985,0.50905796216,0.680120987848,0.903292205656,-1.74725431065e-06,100.538599488,0.11,1.0,-0.206896551724,0.247383514243,0.46988403533,1.02462854653,0.69475960169,0.189438089302,2.04261055208,0.842237400702,0.181617053964,1
1118006056316,0.665,0.283333333333,0.170575399151,0.341281036355,0.507550938097,0.646025205327,0.811164745131,-3.22532073976e-05,98.4308132098,0.09,1.0,-0.344827586207,0.584893192461,0.324015506484,0.870471118243,4.86867567477,0.124050389876,1.22244943672,0.815592953003,0.171277828914,1
1135013059044,0.37,0.230088495575,0.139321678799,0.256476860973,0.446051517658,0.643891261246,0.88643384683,8.79914673195e-06,72.8813559758,0.095,1.0,-0.0689655172414,0.164113685364,0.462834400875,1.07250835916,0.110349788045,0.183341907996,1.44089339298,0.824706552078,0.30943514449,1
1107019014781,0.615,0.339673913043,0.18374714945,0.362763445474,0.497453812988,0.685173616584,0.851675703819,1.72436637774e-05,110.632184043,0.12,1.0,0.172413793103,0.367728825596,0.449181552168,0.717503942453,0.710753115446,0.170826128108,1.11296119616,0.850018885523,0.161384653665,1
1135016097180,0.25,0.358064516129,0.168673729835,0.303672811498,0.438774938783,0.605074454598,0.807484404076,-1.03111955647e-05,62.9921260418,0.06,1.0,-0.0689655172414,0.180320635652,0.271791963822,0.483666296438,0.0821415717339,0.0931499635684,0.420840793302,0.816747386042,0.42304518553,1
1138018012207,0.5,0.173469387755,0.144174782685,0.213328871695,0.330454491837,0.463795616101,0.847382942234,-4.52636895539e-05,89.2857143178,0.06,1.0,-0.0344827586207,0.499684835502,0.383347720872,1.25934114326,1.8807232287,0.1497514253,1.25620819952,0.754883360133,0.351534078719,1
1132020075864,0.31,0.333333333333,0.164967355753,0.293954380024,0.436218809587,0.637699724581,0.797431578844,-1.3633568754e-05,58.2329316665,0.08,1.0,-0.0344827586207,0.213388850465,0.335030370688,0.71860156362,0.0478457528082,0.117921308474,0.719855253299,0.813246703769,0.568982359973,1
1140018116772,0.465,0.223776223776,0.147530396384,0.265368307758,0.390325042424,0.549327486993,0.895183658029,5.0862520337e-06,45.454545529,0.11,1.0,0.0689655172414,0.258925411794,0.572464104436,1.15006788735,0.56077453878,0.227567490402,2.24624265631,0.803872092816,0.476268451206,1
1135020051410,0.53,0.171428571429,0.109334959875,0.199586402428,0.319390716381,0.457681217197,0.749595631072,-1.89282253835e-05,569.767436972,0.08,1.0,-0.0344827586207,0.180320635652,0.500867833059,1.74117758431,3.1701341308,0.193520788832,0.990183048862,0.773684083572,0.264452868523,1
1107026073548,0.505,0.408088235294,0.214653914599,0.460195680025,0.614162654108,0.805044820168,0.913215470306,5.3650836327e-06,57.4229692339,0.16,1.0,0.172413793103,0.432187899274,0.510433463698,0.477479472123,-0.802183377969,0.209766705456,2.99455908397,0.858948041554,0.26076636621,1
1104026047399,0.845,0.236734693878,0.12720233104,0.27737358587,0.378375738714,0.552906994771,0.765354290181,-8.82092678528e-06,248.667850815,0.08,1.0,0.137931034483,1.14783047413,0.360403491841,0.351781298585,9.11555395332,0.144345056065,0.357438374255,0.688392338799,0.310958544096,1
1101030069822,0.655,0.257383966245,0.128200302743,0.258070429931,0.397998275045,0.578520278687,0.776804913176,-3.39967514895e-05,111.963190014,0.11,1.0,-0.0344827586207,0.706082389003,0.500679586002,0.716393601204,1.31080047569,0.189480277476,0.860945945897,0.783923422308,0.30520070737,1
1007029005393,0.145,0.309734513274,0.144081184688,0.288174591922,0.432292445287,0.645562027344,0.789131802401,-1.3333707942e-05,18.6915888124,0.03,1.0,0.137931034483,0.16949939102,0.127851122434,-0.00151364473798,0.262222782127,0.0436298667804,0.464980381341,0.826096806544,0.378991387353,1
1104031100338,0.435,0.310344827586,0.192743335952,0.289239141693,0.438373683865,0.590103933622,0.776189971977,3.05210236177e-05,103.896104066,0.12,1.0,0.103448275862,0.380384264603,0.505279294571,0.474364204896,-0.0469972743058,0.176521535463,0.746126309224,0.827954603122,0.263181858003,1
1009033009186,0.93,0.260416666667,0.187030136595,0.335966437714,0.472529144197,0.651692231042,0.828452199752,-1.24571914325e-05,176.470588539,0.18,1.0,0.0689655172414,0.721868574986,0.650765334408,0.879670542563,2.33785247994,0.269385553415,0.830546050505,0.829533893299,0.344772149689,1
1138031086682,0.455,0.390909090909,0.220125307736,0.412880237976,0.563024161116,0.687443834744,0.817550223333,-5.15180194256e-06,133.986928303,0.12,1.0,-0.103448275862,0.584893192461,0.41472402874,0.167381790295,-0.637045671941,0.154583833618,0.957053775569,0.852006818838,0.213378795428,1
1132034086219,0.29,0.355113636364,0.230248049657,0.347021426763,0.460671898743,0.614472335725,0.810747266252,-4.96603084219e-07,68.965517311,0.06,1.0,-0.103448275862,0.318256738556,0.240041444138,0.0193147127,-0.101816218902,0.0813547481179,0.676362903451,0.830641758003,0.183675197001,1
1135033077887,0.685,0.315104166667,0.230060817177,0.414218839053,0.59145182503,0.716317249075,0.898840352769,2.0507179859e-05,177.536231689,0.175,1.0,0.137931034483,0.361430246112,0.600986904315,0.759920838626,0.311890932848,0.245759344831,1.71393282148,0.86264280561,0.186702993562,1
1129037023333,0.46,0.36678200692,0.23644656287,0.383715242437,0.599225189316,0.731644732976,0.920188673952,3.59569043519e-05,569.767441793,0.11,1.0,0.137931034483,0.472312502433,0.386096771059,0.363505886687,-0.606224146488,0.151945891778,1.33047310225,0.858192713484,0.259887066689,1
1007045028417,0.25,0.331658291457,0.143452193509,0.258265059776,0.435882301047,0.581560440902,0.825459393495,-8.13491139888e-06,94.736841959,0.07,1.0,-0.0689655172414,0.191242008027,0.322535013056,0.689846412571,-0.210399896848,0.111545044317,0.977182556434,0.797233784761,0.408101964701,1
1126042019812,0.765,0.245283018868,0.144628122777,0.241101400475,0.382436314522,0.526273657998,0.759918431611,-2.86321203052e-05,333.33333367,0.08,1.0,0.0,1.03235701094,0.382146108849,-0.0534278350918,4.42306351873,0.140132800768,0.542003403127,0.753055873415,0.131691851475,1
1104047009662,0.225,0.314960629921,0.179573649087,0.299306341105,0.476755557194,0.652658425575,0.827058830463,-1.42224534887e-05,43.4782608676,0.04,1.0,-0.0344827586207,0.282330582656,0.153168035491,0.104298798939,1.46574286802,0.056626711128,0.397884674576,0.788044916639,0.690367077792,1
1015046061302,0.43,0.287179487179,0.144779540313,0.260654756952,0.430660861863,0.674207979009,0.875829468211,8.42943071227e-06,12.8947368419,0.07,1.0,0.103448275862,0.584893192461,0.31664808562,0.409927918091,1.34529833587,0.121813213194,1.29279817996,0.788173098962,0.576101667547,1
1004049060091,0.17,0.368055555556,0.205167886412,0.365988842994,0.566930562039,0.685477914216,0.883621752703,7.7754253378e-06,42.8816465879,0.06,1.0,0.172413793103,0.127197456176,0.22344707585,0.357123571757,-0.975886760339,0.0828323409728,0.99799985552,0.860965855407,0.210156460255,1
1107048001249,0.4,0.28313253012,0.166307863886,0.264906510233,0.42865426697,0.560785618455,0.722885976036,-3.27165337134e-07,328.767126678,0.06,1.0,-0.172413793103,0.499684835502,0.275658427726,-0.0348317539362,1.7730057351,0.0965668287607,0.325038974977,0.785426835718,0.196435737727,1
1012050001020,0.31,0.156351791531,0.0376975669426,0.113095898749,0.187639717864,0.297508934257,0.711140857149,-1.264395526e-05,98.3606552894,0.02,1.0,0.0,0.330454417978,0.243200181094,1.44713058715,3.3663916609,0.0861651504408,0.858939141944,0.665414172864,1.70041239032,1
1001063007618,0.585,0.309278350515,0.15628716609,0.276738358454,0.446238487873,0.623193217501,0.792574313309,2.71838505228e-06,187.500000473,0.13,1.0,0.103448275862,0.706082389003,0.532990177704,0.266371616706,-0.0159065794201,0.186264853367,0.538070961592,0.809233539154,0.17363961819,1
1018071059395,1.09,0.2416918429,0.137416444821,0.243323890987,0.352020597492,0.537633679588,0.731935401526,2.52442685986e-05,360.82474191,0.11,1.0,-0.0344827586207,0.753880501842,0.600625564896,1.3336307638,6.72782697954,0.222851490775,0.59414404738,0.763738259999,0.204474081131,1
1012074018477,0.425,0.348027842227,0.181472699237,0.321334490525,0.460239654139,0.615574101074,0.801319450758,8.86744489925e-06,355.263163468,0.11,1.0,-0.137931034483,0.555965631605,0.454811275436,0.155179926921,-0.486280390382,0.156387890798,1.01198699613,0.817276370087,0.184078296506,1
1015075031032,2.855,0.0580357142857,0.0484216148667,0.0959919976782,0.151405054259,0.199403030188,0.270448609473,0.000142484624832,746.268656209,0.09,0.944196428571,0.0,1.75422870334,1.1414132821,3.8031091596,13.2970351269,0.892701403549,1.19972445333,0.680188908184,0.182548615271,1
1015084072438,0.76,0.323232323232,0.154751976595,0.304318957666,0.487447621903,0.659317688279,0.845997243386,2.7033213445e-05,270.000000927,0.17,1.0,0.241379310345,0.836538343348,0.708013839536,0.563131264436,-0.310984759661,0.27172299546,1.79954156627,0.790336107736,0.207183151599,1
1007086095062,0.57,0.334415584416,0.127221786512,0.234216154239,0.339108919192,0.521391832689,0.75881688784,6.72919420136e-05,99.0629183821,0.16,1.0,-0.275862068966,0.753880501842,0.800856819669,-0.476054053336,-0.191870636231,0.23703880619,3.21777043436,0.792595802875,0.209891311337,1
1104089047878,1.095,0.259587020649,0.185418729724,0.3684056716,0.491433815616,0.6314179493,0.785046634572,-3.26791558457e-06,577.127658519,0.16,1.0,0.0344827586207,2.98107170553,0.628000404357,-1.0098973329,5.96886146482,0.264139847987,1.49017361452,0.722522134957,0.187100564199,1
1149062032814,0.635,0.309417040359,0.293305555822,0.405928492088,0.538646644163,0.714277723489,0.885679218242,7.00059214976e-05,75.4950495086,0.16,1.0,-0.206896551724,1.12813904598,0.560693007717,-0.46517223855,1.02568033832,0.23464451115,3.33826339515,0.821581825392,0.963241710629,1
1109092075475,0.38,0.298305084746,0.141596607209,0.305526638789,0.387062219027,0.552002965634,0.795780328796,-7.39324648398e-06,191.919191831,0.08,1.0,-0.0689655172414,0.355189412351,0.386749128454,0.607075419378,0.264624428498,0.137628563072,0.653650286262,0.812119981345,0.215217493479,1
1143072005756,0.515,0.2,0.150625117749,0.257833811717,0.354152910231,0.483660705133,0.774507698863,-1.35509625068e-05,118.881119767,0.08,1.0,-0.0344827586207,0.499684835502,0.489290188087,1.13087202733,1.10104229481,0.18252392009,1.05650455848,0.786026292558,5.21823002962,1
1009112023724,0.4,0.164556962025,0.126044311342,0.188201111522,0.313686258356,0.504284175423,0.690343953012,-1.52315525522e-06,75.5813952333,0.03,1.0,0.172413793103,0.40604752413,0.146146549477,1.33309014708,11.4085671055,0.0636610758227,0.519404897188,0.651334241401,1.47539059757,1
1115112044190,0.725,0.234939759036,0.14946795991,0.23007475295,0.369227132642,0.535144702944,0.792454455528,-2.56231473982e-05,299.003322224,0.12,1.0,0.137931034483,0.570362804334,0.610774740669,1.18098012605,1.69468716858,0.239032447807,0.850783440799,0.789030125306,0.220278872713,1
1015119010830,0.37,0.421052631579,0.247848233009,0.435033457281,0.608369471613,0.780344108484,0.925096235422,-1.18633467634e-05,24.9433106498,0.14,1.0,0.137931034483,0.355189412351,0.481163415369,0.382199081861,-1.14513549184,0.190557903474,2.53323581248,0.87484696362,0.272208745146,1
1138010016400,0.72,0.193181818182,0.131964201134,0.22272817497,0.345274059288,0.473103456277,0.684811400298,-3.64711191178e-05,100.323624649,0.1,1.0,-0.103448275862,0.485935642287,0.558480190544,1.50729633259,3.83991787858,0.205199791637,0.615537555728,0.763192914363,0.281650888868,2
1112015014248,0.385,0.176991150442,0.068677073979,0.102544109459,0.204165406951,0.3048895151,0.650742485033,-2.3661048037e-07,102.040815874,0.03,1.0,-0.137931034483,0.213388850465,0.268225480741,2.1151420493,5.83574667461,0.0923586133416,0.459232426168,0.659551509532,0.174368023129,2
1004027053688,0.25,0.236363636364,0.107579252122,0.215167630296,0.322774261348,0.482013527654,0.690073151621,-9.3402876582e-06,31.7460317414,0.03,1.0,-0.137931034483,0.318256738556,0.171231355681,0.0559416554093,3.66388065382,0.0594971101458,0.422522197962,0.71662129377,0.38564106567,2
1109043028104,0.38,0.161290322581,0.108821682985,0.189585073577,0.265046192229,0.352235912038,0.512879705854,-2.85892330756e-05,194.756554716,0.05,1.0,0.0689655172414,0.235947433445,0.338567131323,1.7388828843,4.21769112656,0.109604629546,0.514716484048,0.698444782278,0.322669191084,2
1101045086953,0.355,0.0846394984326,0.0275889072302,0.0827690620844,0.0827690620844,0.137956238318,0.269703423108,8.7741805517e-06,25.6410260496,0.02,1.0,-0.0344827586207,0.116863247781,0.335384290486,3.21020391339,9.68007794592,0.129208817367,1.32394200479,0.540217606025,3.462759202,2
1115046040937,0.775,0.149590163934,0.0629065925361,0.138441466928,0.202395413822,0.312039067723,0.622118510377,6.53065914857e-06,534.246580851,0.08,1.0,0.103448275862,0.472312502433,0.735508843209,2.07154889739,4.40412549038,0.26394710841,1.1425982432,0.689283433859,2.43954907662,2
1121045035736,0.895,0.0789473684211,0.079496618091,0.105511096243,0.132501856547,0.236363507079,0.41326339788,-3.30933423661e-05,192.771084476,0.03,0.998245614035,-0.0344827586207,0.0864256236171,0.345988844773,5.04409172875,44.8430671037,0.133540583388,1.17411397136,0.58684260239,0.602159672036,2
1140038016193,0.45,0.0721649484536,0.0442628923526,0.0885295395693,0.164849208007,0.258467489943,0.341598959872,-4.31986767357e-06,32.8358208336,0.03,1.0,-0.172413793103,0.0964781961432,0.416171203571,3.24193022595,10.4722936089,0.165212253258,1.55958385204,0.59852757788,0.537625476523,2
1138055026674,0.225,0.173913043478,0.143372593432,0.213102281927,0.318235358153,0.455600650104,0.777895334495,-1.58964062192e-05,138.888886783,0.04,1.0,-0.0689655172414,0.137627285823,0.256976902992,1.44713313197,1.59421548124,0.0913561792151,0.927830160266,0.76742584435,0.230150718037,2
1112080062332,0.34,0.13810741688,0.0740364409602,0.123401046673,0.196561604902,0.269084619252,0.646653023921,-5.545424738e-05,96.1538458921,0.04,1.0,-0.137931034483,0.148153621497,0.374942971344,2.12872792062,4.10358205375,0.129701600166,1.01158131966,0.651729946669,0.309028265359,2
1140064064537,0.515,0.160869565217,0.102467791489,0.16172129933,0.22138969753,0.39014212094,0.788488901422,7.227822522e-05,69.3069306964,0.04,1.0,0.0344827586207,0.158777356155,0.443298931233,2.13932392643,4.427239348,0.198595755499,2.05104615453,0.697266206979,0.355927246623,2
1121087029319,0.345,0.205513784461,0.117795991607,0.215864343332,0.365098398253,0.565347233088,0.756864624153,-1.32304787522e-06,1137.93099185,0.05,1.0,-0.0689655172414,0.29419584145,0.294623933953,1.13546323061,1.16128044343,0.110323468802,0.950759310045,0.786874243088,0.211405747383,2
1146066026339,0.285,0.151851851852,0.151547490395,0.151547490395,0.252593434975,0.402348053805,0.602850666265,9.4706562223e-07,64.2201836082,0.03,1.0,0.0689655172414,0.202264434617,0.181493886734,2.01077639112,6.7322765089,0.0688671909278,0.419275884024,0.665615076438,0.269905946041,2
1132081054233,0.82,0.0994318181818,0.104958497531,0.180949333581,0.260067778574,0.378169336989,0.515913506869,-3.54415380152e-05,625.000002671,0.05,1.0,-0.137931034483,0.419057521689,0.351028700875,3.06993455284,17.2408483174,0.14773898555,0.568911717411,0.644967158963,0.35265881125,2
1004115029336,0.395,0.116991643454,0.0460457129099,0.114593885612,0.204418363628,0.331581015601,0.625785540799,-1.864645924e-06,27.2727272401,0.03,1.0,0.137931034483,0.106623783978,0.400057682242,2.34368154111,5.15635710751,0.157653966038,1.91268797051,0.672457399159,0.407576266376,2
1115116056987,1.01,0.182336182336,0.119018903483,0.208380263924,0.311403695734,0.436276165044,0.663607426066,-1.82004899357e-05,325.396824222,0.1,1.0,0.172413793103,1.33345806228,0.624953869487,1.12319518839,4.24945877165,0.228396059568,0.461248359961,0.715029828289,0.331149924114,2
1135104069797,0.275,0.20447284345,0.125382254477,0.166412351078,0.249636172619,0.372793083597,0.615938847831,-6.89574598896e-06,89.1089102535,0.03,1.0,-0.0689655172414,0.137627285823,0.221398500745,1.9429188072,5.76094835101,0.0770846872959,0.330515232225,0.693100937061,0.51837502953,2
1101020024323,0.365,0.144846796657,0.0533007182225,0.106605957997,0.185724920218,0.443337256139,0.794111082281,-2.96011507322e-05,76.9230769289,0.03,1.0,0.0,0.0864256236171,0.34560399556,2.10190596051,4.063962422,0.144279158798,1.48732952119,0.705961667741,0.305969651187,2
1129018020966,0.44,0.0758807588076,0.0601504125411,0.120857389997,0.180456340241,0.215887866512,0.470354497864,4.16754476505e-07,162.551440299,0.01,1.0,-0.103448275862,0.0665961212303,0.152418823412,5.46132634472,41.8702288211,0.0776476064327,0.60338168748,0.54526465782,0.461373808091,2
1121020054708,0.71,0.292397660819,0.12194565816,0.264001445744,0.431643519717,0.65044686631,0.813322722449,6.35937654922e-05,202.279202148,0.09,1.0,0.0344827586207,0.380384264603,0.449071867392,1.29581661883,2.89539252714,0.182651167042,1.17803070353,0.817410973635,0.267004161168,2
1001028076030,0.46,0.15,0.0373441337434,0.0929382806789,0.16426804775,0.41865170197,0.744660845768,7.98334685063e-06,90.9090908004,0.03,1.0,-0.310344827586,0.0665961212303,0.493275364492,2.05978112697,3.25109199192,0.221333458835,2.47321121788,0.733637757784,0.527733289102,2
1121040000467,1.22,0.134007585335,0.064149852901,0.148331657574,0.250878166141,0.392074150174,0.668825140483,-1.52459997146e-05,600.732599097,0.05,1.0,0.103448275862,1.24905460584,0.432728087533,1.7571179054,11.3322289097,0.175195176321,1.11058630473,0.696384183031,0.301667307638,2
1135061031440,1.155,0.117647058824,0.0716892407932,0.119488825156,0.167298545872,0.237942711215,0.604801116727,2.80500794348e-05,248.50894595,0.04,1.0,0.0689655172414,2.04789498963,0.387219098071,0.975817352215,16.2931054722,0.172337299717,1.22352143107,0.546159073471,0.523821139168,2
1115091025004,0.21,0.2,0.125344435147,0.166362155748,0.329729810968,0.566759557505,0.81708503283,-4.9376826933e-06,71.4285707582,0.03,1.0,0.137931034483,0.0864256236171,0.22146530182,1.52952448371,1.78463517198,0.0834247572913,0.984584720549,0.763515408967,0.300561037951,2
1104112056949,0.25,0.089552238806,0.0564514248712,0.112907638572,0.112907638572,0.196703472862,0.355501566128,-3.37449795983e-06,67.5675679458,0.02,1.0,-0.0689655172414,0.0568175092137,0.323323229159,2.63378876058,6.14535199272,0.107663093948,1.04154326731,0.621345034099,0.584666429995,2
1163025022334,0.42,0.283333333333,0.135274662067,0.206457471411,0.289492378044,0.493496379446,0.84456009321,-1.52744163967e-05,92.4855491355,0.1,1.0,0.275862068966,0.584893192461,0.644430431835,-0.695123724531,0.15522626357,0.186065232737,2.25042285629,0.755621631553,0.547585555395,4
1160035040517,0.675,0.29347826087,0.193053350672,0.283530083877,0.43574894255,0.529993219632,0.701248694556,1.99149825661e-05,495.049508541,0.175,1.0,0.0,1.39883291902,0.750463290028,-0.896267742947,1.65046719348,0.255383690542,1.45531578296,0.777008527795,1.38397288449,4
1004076031961,0.825,0.326086956522,0.137276661173,0.266865822619,0.399013831583,0.550039678031,0.760495182803,-1.07349501595e-05,5833.33330385,0.185,1.0,-0.241379310345,1.06060806296,0.872724389313,0.0147802437051,-0.0259520796093,0.278166590617,0.556331602489,0.770556909911,0.61922614247,4
1101079028007,0.445,0.385906040268,0.240523725213,0.405240669457,0.532935419664,0.718290711621,0.90779390251,-4.87779357215e-06,118.784530284,0.11,1.0,0.275862068966,0.690440931643,0.427263869771,-0.395451503513,-0.595528909195,0.147849972715,1.85223487961,0.856119167339,0.602119905442,4
1104082009780,0.545,0.28323699422,0.155885258591,0.289623994111,0.452142818659,0.613923187792,0.780304554652,-4.39172273688e-06,123.287668818,0.095,1.0,0.241379310345,0.452096219828,0.41365595643,0.687808841242,2.10574387442,0.152222829769,0.776742274637,0.793253997992,0.219536934285,4
1009091052190,1.865,0.195402298851,0.107653374708,0.217769044335,0.308950053352,0.436628099338,0.709289531822,0.000131396301812,2916.66674035,0.31,0.971264367816,0.103448275862,12.2432749227,1.95250203648,-1.88855385363,5.91176564599,0.59025823668,1.83806882072,0.729241207521,0.478215962841,4
1152059039038,0.415,0.36170212766,0.136619302678,0.268947366591,0.445825557185,0.622616540206,0.796918390568,1.20686623894e-05,76.9230769345,0.12,1.0,0.103448275862,0.479092704143,0.556053610155,-0.0732826787345,-0.524193113335,0.176358113639,1.41198254907,0.819283771018,0.548003228571,4
1126022051007,1.17,0.322957198444,0.135059374547,0.254227683598,0.416760414418,0.590012725852,0.805929729474,1.86117139469e-05,329.29782073,0.27,1.0,0.103448275862,1.8313919958,1.19941239483,0.294233203665,-0.0848467636878,0.403013050461,0.468767915869,0.76361906046,0.587935652174,4
1004061026982,0.41,0.370716510903,0.193573057108,0.375749393452,0.476066956651,0.617616825138,0.811722121111,-6.41946143259e-06,72.1649478408,0.16,1.0,0.172413793103,0.499684835502,0.666591292362,-0.250458963958,-1.00145081995,0.208152795097,2.66416189981,0.856966531677,0.669586375219,4
1009066047086,0.64,0.300940438871,0.151022618039,0.257399581438,0.426420165884,0.556598437012,0.805021594317,1.17836512863e-05,585.858585589,0.11,1.0,-0.103448275862,0.644371723215,0.488002347932,0.116912636341,0.988834416791,0.16406292066,0.575890081673,0.773251468061,0.747334189096,4
1007079062947,1.18,0.321678321678,0.155510221655,0.269204165475,0.417830773549,0.588826832806,0.814727444537,5.78166942464e-06,213.263979234,0.27,1.0,-0.206896551724,1.91071711807,1.31729224127,0.0926595465298,-0.0888119191926,0.411571345776,0.938162998229,0.787891684495,0.518985748135,4
1118019010644,1.03,0.287519747235,0.165183514967,0.321116745032,0.446386262227,0.570269997229,0.781509378613,-1.59561361846e-06,812.500008209,0.17,1.0,0.0689655172414,1.29086765277,0.721957650021,0.328123188175,1.09428991368,0.257449800953,0.913740769874,0.820129607288,0.302991574076,5
1009027004241,0.525,0.446202531646,0.240949480773,0.417438214618,0.603599851672,0.775890089048,0.911399180944,-4.42715195991e-05,351.851856,0.16,1.0,-0.0344827586207,0.445439770746,0.535523520907,-0.0768770277325,-0.86454423057,0.192496217893,2.0256319428,0.852378155089,0.312098118456,5
1123042008454,1.285,0.236472945892,0.162338386429,0.282466340187,0.390891259897,0.539352622932,0.727765584216,-4.6558725491e-05,284.974092406,0.16,1.0,-0.172413793103,2.10455958813,0.784158856182,0.318851957807,2.62066699782,0.284341178558,0.446133281511,0.731113321226,0.336671023881,5
1112048002602,0.435,0.432242990654,0.289742927071,0.46420107419,0.628305623513,0.763944998611,0.900167662447,-2.79252123933e-05,266.666666936,0.14,1.0,-0.103448275862,0.367728825596,0.415399130123,0.0960541218289,-0.952209148803,0.154357309974,1.68337677826,0.87674769035,0.374914182729,5
1104057016830,0.475,0.328767123288,0.15755696193,0.304795376997,0.411990427565,0.567009142157,0.756539320677,-2.56156349648e-05,162.499999671,0.1,1.0,-0.275862068966,0.887991349096,0.423346691068,-0.614043400867,0.765534055063,0.132833956074,1.58290539062,0.803161093958,0.434419414203,5
1115060029543,0.47,0.345153664303,0.194808975038,0.373159269287,0.516444289866,0.658939018172,0.834614089491,-1.77518711799e-05,358.490565251,0.12,1.0,0.0344827586207,0.306170888132,0.436667827706,0.415779083644,-0.337085617305,0.157854394734,0.924579451055,0.860105305622,0.368761287939,5
1146047012781,0.9,0.25,0.138887723846,0.226818451039,0.387332555343,0.603569977425,0.828382401647,1.10117664493e-06,636.363640747,0.12,1.0,0.0,0.513561248436,0.525775137522,1.83241374821,11.2440313035,0.211300826445,0.844640317861,0.774794086184,0.392545730892,5
1118064018831,0.39,0.480719794344,0.277971636373,0.483155280545,0.678975348403,0.79344650882,0.908523483026,-5.46626669167e-05,276.190476469,0.18,1.0,0.0344827586207,0.485935642287,0.499702806071,-0.092855875532,-1.30438302304,0.185183969992,1.68914085838,0.887863635305,0.306501144685,5
1007067054486,0.37,0.48253968254,0.304868321166,0.499140732096,0.686332188342,0.838844370483,0.93677910651,-5.01422090508e-07,30.668127083,0.16,1.0,0.0689655172414,0.330454417978,0.42324539923,-0.0108674813788,-1.18554659363,0.166111516847,2.41616440954,0.890929108299,0.285298487572,5
1101069013587,1.155,0.288770053476,0.154627575842,0.305947197859,0.439040971161,0.596126490789,0.779608037346,-2.47064455569e-05,318.181820958,0.23,1.0,0.172413793103,1.26986485188,0.990560931046,0.480596267282,0.321354852899,0.353390012978,0.545105821076,0.824810186347,0.296867778386,5
1107077005181,1.165,0.268786127168,0.168606076585,0.307109972536,0.440856579081,0.585594434834,0.757626063678,1.24553430719e-05,906.542051236,0.225,1.0,-0.103448275862,0.811320885708,0.912620698449,0.921262443882,1.96828711151,0.340548763796,0.560185318234,0.813385162921,0.287940547306,5
1129070033943,0.3,0.453376205788,0.252130072887,0.43989988993,0.579355632881,0.780244237478,0.923513314644,-5.54263827796e-06,133.333332174,0.13,1.0,-0.0344827586207,0.419057521689,0.400156100102,-0.247327588268,-1.17854531745,0.145246450077,1.58967303504,0.869254664931,0.308975313774,5
1109079036299,0.235,0.454794520548,0.302078141153,0.496947647072,0.632529036277,0.774286591525,0.904910643115,1.88819238999e-05,17.751479318,0.12,1.0,0.0344827586207,0.235947433445,0.337081401532,-0.0921600193374,-1.35202971138,0.123360477741,1.94465205436,0.893780062246,0.324976994622,5
1143064036002,0.36,0.406779661017,0.248648441822,0.378171440382,0.486521695156,0.659012475583,0.827792363248,6.51562570898e-06,230.00000079,0.145,1.0,0.0,0.479092704143,0.56639827856,-0.339424745319,-0.970306185471,0.18301727466,1.46248839897,0.858004358229,0.301249841609,5
1132075052900,0.855,0.35635359116,0.235036797868,0.391322977824,0.538565197435,0.705471915436,0.856227085915,-1.43396132833e-05,846.938778042,0.125,1.0,-0.103448275862,0.879296889087,0.456082428268,0.356906066757,3.29396799866,0.168417618937,0.963083395082,0.839798615973,0.311229539286,5
1135074000693,0.525,0.326180257511,0.173418529632,0.306433427306,0.438077671717,0.606897683979,0.809484356216,-2.17453382445e-05,226.415092289,0.1,1.0,0.0344827586207,0.870682140366,0.42108367693,-0.290997251642,0.505956359965,0.145772006211,1.01552437306,0.799546918853,0.274428824153,5
1115087010213,0.425,0.45974025974,0.343127407225,0.577692835807,0.744841194267,0.860112114696,0.942404754554,1.37749458806e-05,75.4716980771,0.13,1.0,0.344827586207,0.213388850465,0.325253922767,0.360113131599,-0.0376991969361,0.133462815636,2.07765762855,0.896089336785,0.327064202994,5
1001091096414,1.365,0.13612565445,0.0995031353986,0.172017441369,0.236531160838,0.309193122696,0.959070752443,4.23501308511e-05,687.500000913,0.135,0.866492146597,0.137931034483,0.548800195722,1.07731432858,1.96682836972,2.25403691086,0.690454885416,1.00201324591,0.729116096973,0.216543073223,5
1118091119551,0.275,0.470588235294,0.395779398118,0.539920357723,0.660975499871,0.794279856921,0.901663857556,-1.87215657829e-05,181.818181491,0.14,1.0,0.0344827586207,0.355189412351,0.439129128565,-0.105722548743,-1.43946477736,0.159058112351,2.09444238184,0.908544391257,0.452455016229,5
1135079014479,0.33,0.46783625731,0.315577883911,0.542732483685,0.700454623914,0.827929012144,0.923513314644,-2.02051098683e-05,155.339804811,0.15,1.0,0.206896551724,0.432187899274,0.400156100102,-0.133155852101,-1.32967672489,0.154754767828,1.53583190806,0.895545618905,0.336809705947,5
1018107071440,1.4,0.260047281324,0.207055497492,0.358162173425,0.503330156184,0.629060891882,0.824839593869,2.11515350154e-05,600.000000151,0.13,0.997635933806,0.0344827586207,4.15228644582,0.487267365065,-1.5518941008,17.6223185143,0.192164097413,0.913841028065,0.702005748167,0.329744186571,5
1007111077638,0.68,0.301333333333,0.19659577537,0.332899504265,0.502841643447,0.645248651857,0.839153046989,-1.64826062512e-05,590.476191072,0.12,1.0,-0.103448275862,0.54170045295,0.468656876559,0.674235456034,1.24865129278,0.179099166075,0.775716421485,0.828310410571,0.360686421916,5
1009118036242,0.715,0.403341288783,0.297129208739,0.508909231801,0.656677844197,0.742101559769,0.896334768904,-3.3994722527e-06,264.150942817,0.15,1.0,-0.137931034483,0.472312502433,0.430287964541,0.428423972818,1.29587994934,0.171712328297,1.87799220726,0.881561062148,0.333573396857,5
1001120059432,0.545,0.350299401198,0.17816044919,0.336772731381,0.486907047523,0.655584668648,0.848686964846,-8.12447483691e-06,611.111114198,0.13,1.0,0.0,0.62929603264,0.463266848349,0.135622894275,-0.159975776716,0.167038415533,0.920249837599,0.827190723201,0.329801119884,5
1129110055213,1.035,0.31498470948,0.216306333877,0.342954981564,0.492751817416,0.659341459861,0.802639587545,1.205844583e-05,1826.53059058,0.18,1.0,0.103448275862,1.18776162395,0.663647648764,0.479094460787,1.20341973763,0.248747060888,1.05791044764,0.826714404604,0.304067806506,5
1123115047818,0.28,0.375,0.250299206022,0.377348448815,0.534369807736,0.691161025566,0.862100648708,3.23731336844e-06,29.4117646097,0.11,1.0,0.241379310345,0.29419584145,0.36810329323,-0.0976453566487,-0.988432019096,0.128067782838,1.57619211715,0.864653355371,0.305435226483,5
1018122021806,0.455,0.396825396825,0.328659530618,0.501030679075,0.650288034944,0.743448160927,0.874691558504,1.8579478835e-05,100.543478415,0.17,1.0,0.172413793103,0.380384264603,0.479095301271,0.161906467182,-1.06481059082,0.183276541743,1.43045522776,0.879711467445,0.316780634597,5
1001023056750,0.865,0.287356321839,0.16208735548,0.295557146779,0.43002455373,0.614252987433,0.778898399596,5.88840195395e-06,135.04074509,0.18,1.0,-0.0344827586207,0.870682140366,0.74255613282,0.561206375534,0.60038077759,0.264730977138,0.55367189549,0.799078052038,0.297104838225,5
1109023062191,1.4,0.301020408163,0.149607678158,0.266229944251,0.434110410285,0.587322515459,0.780292514739,1.34680484323e-05,214.285713988,0.28,1.0,0.0344827586207,2.37287308659,1.21050236398,0.461644299969,0.42029968499,0.422802449973,0.538931989837,0.776033747773,0.371203389684,5
1109065026271,0.735,0.341523341523,0.215006958207,0.432223250426,0.589639915088,0.748814653575,0.88849344828,3.86918086353e-06,167.456556174,0.09,1.0,-0.310344827586,2.16227766017,0.301298118821,-2.57742664892,20.3466792186,0.129312741911,1.37944004212,0.738617039217,0.314667549333,5
1001076053988,0.8,0.329646017699,0.20749092051,0.348718390042,0.531840658848,0.662777183806,0.845189462043,1.85010631981e-06,2526.31580492,0.14,1.0,0.172413793103,0.445439770746,0.490743994685,0.726142914625,3.24530663666,0.179812299074,1.08871365853,0.832290308445,0.449253920711,5
1018082030341,1.755,0.144787644788,0.0815245105149,0.154327144366,0.235951595868,0.318076532339,0.954651166611,0.000208428743958,474.332648452,0.14,0.862934362934,0.0,1.3550492839,1.14061998045,1.94643524491,2.22623683598,0.75221034166,0.919668639748,0.687287457846,0.997391716594,5
1138078062000,0.57,0.388235294118,0.412149216642,0.639282693401,0.770118187011,0.869985250437,0.917503281103,-4.01587249413e-05,108.910891094,0.165,1.0,0.241379310345,1.28031789193,0.397246767419,-0.675709631236,2.14930686132,0.171827708027,2.17667349191,0.871320604185,1.08964009597,5
1104072039295,0.355,0.375,0.113607139357,0.303187993902,0.459509175689,0.583308745209,0.830142933048,2.04810644699e-05,347.826068235,0.12,1.0,-0.241379310345,0.584893192461,0.490994431459,-0.597520120938,-0.252178086443,0.155439837164,1.86522084725,0.825893568578,0.340402748507,6
1140073063850,0.86,0.337730870712,0.200949822822,0.342707084161,0.491885838572,0.650288034944,0.82824122477,-6.43308042705e-06,171.483622476,0.13,1.0,0.103448275862,1.33345806228,0.501674367198,-0.202690947736,1.81023837934,0.173364645666,1.68542268069,0.833528125543,0.325241357243,6
1129012045573,0.24,0.290858725762,0.231059732723,0.345052038547,0.49399266629,0.674974716648,0.925585944935,-6.99289580003e-05,15.1515151501,0.06,1.0,0.0,0.224616199265,0.239198209476,0.502897326351,-0.378434718975,0.0931578659075,1.01251391081,0.828077318306,3934.63368,8
1115026004619,0.66,0.341317365269,0.179294082139,0.37888440369,0.481165175955,0.636678014821,0.832900107283,7.38298772721e-05,85.38163,0.12,1.0,-0.241379310345,0.432187899274,0.456117322921,0.551931046728,1.68671857453,0.16613789721,2.31506768603,0.815153849764,10.4262619275,8
1118048023347,0.25,0.296923076923,0.166790955867,0.300283147531,0.398626704478,0.531712663288,0.724985819126,-6.50237516943e-05,90.9090908672,0.06,1.0,0.103448275862,0.191242008027,0.277403261261,0.657820961084,0.289133006587,0.0894606971321,1.15859475506,0.810471196193,12673.02152,8
1129045044570,0.15,0.332635983264,0.154700324728,0.308008474796,0.508756124052,0.658504733434,0.806991650359,2.1419399444e-05,19.125683049,0.04,1.0,-0.0344827586207,0.0864256236171,0.177794992383,0.648588741793,-0.471947309663,0.0633761672556,0.995743454234,0.837245618946,329.223947778,8
1107062010081,0.42,0.227990970655,0.143386749022,0.256188067291,0.430269725991,0.576469347746,0.813329285548,-4.43946594359e-06,925.925928524,0.04,1.0,0.103448275862,0.137627285823,0.191823465168,3.06952864668,23.4879219416,0.0800716688996,0.518196307431,0.78379106743,0.926103183962,8
1129081015123,0.29,0.322429906542,0.150484311397,0.311216585037,0.451567832259,0.599457539663,0.799593106438,1.58444463479e-05,278.481008152,0.04,1.0,0.0689655172414,0.318256738556,0.184467356787,-0.0164215878257,1.17645603268,0.0639102533412,0.39232402444,0.798807249571,1.69326613667,8
1101027080869,0.3,0.334507042254,0.201423150459,0.323809234975,0.443281304845,0.642116589724,0.839454281,-1.0358370749e-05,39.0015600958,0.055,1.0,-0.172413793103,0.16949939102,0.227601267147,0.675515130289,1.59593216184,0.080661959227,0.730578794041,0.823416032011,0.345635544851,8
